{
  "type": "service_account",
  "project_id": "speech-to-text-demo-253104",
  "private_key_id": "2b14675da38f8b24d10a4400860c0433b0799391",
  "private_key": "-----BEGIN PRIVATE KEY-----\nMIIEvgIBADANBgkqhkiG9w0BAQEFAASCBKgwggSkAgEAAoIBAQCesrbC3EDs10wf\neK8HBwVQEJIY+StReolrp/aCRtofTweMcFpdw6vOsZNNoNCNuHl9srTfT6gcUObP\nswI+aZ/SETlQZkC2m2UIegbbgXYErZxnngRWubOLctqWpnkIbsuqEGaeybQH/UBy\nDvnwcfXWyjxeXYZ4EmbvIBPhK+223+wRfanv6CDmpQNmEU6BR/Cgo/OA+20dfuB4\nevrCxBd8WiuYXlzIbhsg0kCXa0EBn9Z+RA28YQA7v1pBeasEkc5dm9irScea3sek\n/rQWnTzQ+rMn8hTgapyHVq+k4qiaxLgxbkv8gjbQ7zpvE1RAYezhy/XyPH2ZiUT5\nqZtCwtOjAgMBAAECggEANmsgApfWZ6C4SL5wfl9o8fiMsKWYthrnzpPNEwVKvJu0\nAfNw+WAkpP79fQwdF8vfVTwXi8/b3MHdM/G1XkOH+1fOqIQ3wqZsschuW4z8NER4\nMovb/wU0zSe4TxqMvFiJ3Co9lkuiQW8VT0dVa58YZuv4YX9+oePlijAcwQT4QdHi\n/BtmUJlB4KssHWzQ0/EfwxQBSZS4gocnsyjzy5GGeCYCHlF5ENdv+OMyv+Stxr88\nir+zB4W5RFiE04+4s7svCosL+1l1bmKK7hbPQ9ISZViMeGVjlsUulBMYbQfkjetU\nwN7XP1hnAWdyaLRJQxC7APwUoqzugXjgmFrFSbBlSQKBgQDKSJMx90mWBWIwjw89\nC+VQ9pXhobw4JCkofD0pVTE8WZOLN4M27JWs1jD+Ql7rNQGFQde+Sq/3phCt47QS\nHe7jhiBNOkw8hnkv/R6KU2C/uH3CVqDwZRm7/bEE1eO1A8Eqt5pTn6Z5U+HOBivo\nJjmGGRdZatlATk6S0c5DR4kMvQKBgQDI1ymG4fGdaibHwrWVSHsPzKRdScSrCDdE\nSknKfv+5QAA64He6+B/qDk9tVXnm4Dv+lHEqZYc9n1spH+A6O5tDz+Is97NdWy8A\nQZhEhn5FlJNiSdn6C/eWQzTFs80HDHMZ9t17Df/V784CaR+4HQF55AVwJorhLZKu\nxRDmIUbX3wKBgQCcAPK8UzmGIKrERmB7NSRql3GqLKDLL2Aqn/5PVSt+nprCgFKK\n1lTskdgBD1DC1wNQMSJg2JrzRDiS0wx5+GnXQQbCaJaJCzCFSRH3niv8UB109nhy\nTZZWPGX8E7TkUnv0JNs5aOPrqDx6NppAFNLCT7GJPXVFOd8xLeuESbQxhQKBgQCH\nYpM5u4F2DaKKsjRZp3xdUCPURu/uIyGuRS2s9SNJK118Uugi/zP0QSVFnIMKIUoP\n+Ny4Kaya25tGA5jRaHDnq3DZwzgDzH3IfG86cjcYjGk1rnbj2cFSZ4dhZizlfXzx\nmbn/Q5acDoUeluKs59Cg7BbGXRTtah0g9vLHTtNEnQKBgFPpJTOX3TF2rroKoO+N\njkZVHnRDb9hPCclPLqp991JoV15x1g+rA9e43PK4JJuMKdiwGG7VKVW0ua4XMRDV\nHcrnYY52tj5xk0TZPaMAhVi1ZLQxIvEJadmmyXJZQQD6qostuDaDuk9iHEpE9RAr\nJZdaa4bsRHKhfoUNqRkr1z5n\n-----END PRIVATE KEY-----\n",
  "client_email": "sstdemo@speech-to-text-demo-253104.iam.gserviceaccount.com",
  "client_id": "102050820273686408938",
  "auth_uri": "https://accounts.google.com/o/oauth2/auth",
  "token_uri": "https://oauth2.googleapis.com/token",
  "auth_provider_x509_cert_url": "https://www.googleapis.com/oauth2/v1/certs",
  "client_x509_cert_url": "https://www.googleapis.com/robot/v1/metadata/x509/sstdemo%40speech-to-text-demo-253104.iam.gserviceaccount.com"
}
